[
   {
      "id":"1",
      "name":"Tester",
      "email":"rejithsham296@outlook.com",
      "gender":"male",
      "age":25,
      "address":"Address",
      "city":"city",
      "status":"1",
      "country":"India",
      "modified_by":"1",
      "updated":"2021-11-26 07:39:44",
      "modified_date":"2021-12-03 19:48:04"
   },
   {
      "id":"2",
      "name":"Tester",
      "email":"rejithsham296@outlook.com",
      "gender":"male",
      "age":25,
      "address":"Address",
      "city":"city",
      "status":"1",
      "country":"India",
      "modified_by":"1",
      "updated":"2021-11-26 07:39:44",
      "modified_date":"2021-12-03 19:48:04"
   },
   {
      "id":"3",
      "name":"Tester",
      "email":"rejithsham296@outlook.com",
      "gender":"male",
      "age":25,
      "address":"Address",
      "city":"city",
      "status":"1",
      "country":"India",
      "modified_by":"1",
      "updated":"2021-11-26 07:39:44",
      "modified_date":"2021-12-03 19:48:04"
   },
   {
      "id":"4",
      "name":"Tester",
      "email":"rejithsham296@outlook.com",
      "gender":"male",
      "age":25,
      "address":"Address",
      "city":"city",
      "status":"1",
      "country":"India",
      "modified_by":"1",
      "updated":"2021-11-26 07:39:44",
      "modified_date":"2021-12-03 19:48:04"
   },
   {
      "id":"5",
      "name":"Tester",
      "email":"rejithsham296@outlook.com",
      "gender":"male",
      "age":25,
      "address":"Address",
      "city":"city",
      "status":"1",
      "country":"India",
      "modified_by":"1",
      "updated":"2021-11-26 07:39:44",
      "modified_date":"2021-12-03 19:48:04"
   }
]